===================================	LIVE

M**&&%%ah@ma@n640&%%02**!!

keyalias = BrightStarApp

bs_v1.0_100522.apk

===================	create sha1 key by bs.jks
live sha1 key
keytool -list -v -keystore bs.jks -alias BrightStarApp
B2:EC:75:05:A5:85:C0:2C:EE:63:DF:07:1F:0E:F4:25:1A:AE:50:B4 ->munir

local sha1 key
E:\flutter_app\aitl\bs\BrightStarFlutterApp\android\doc>keytool -list -v -keystore C:/Users/itryd/.android/debug.keystore -alias androiddebugkey -storepass android -keypass android

95:F6:42:3B:EB:E8:4D:F1:D7:F3:2E:E7:39:54:08:D8:BF:F0:6B:F0


firebase:
33:87:ae:71:78:bc:70:fc:1e:24:14:1e:87:41:46:26:49:e5:0f:f5


b2:ec:75:05:a5:85:c0:2c:ee:63:df:07:1f:0e:f4:25:1a:ae:50:b4
